{"type":"FeatureCollection", "features":[
{"type":"Feature","geometry":{"type":"MultiLineString","coordinates":[[[-8.646365,40.321632,65.695],[-8.645205,40.32147,66.349],[-8.644858,40.321689,66.323],[-8.645146,40.323401,66.408],[-8.644991,40.324647,67.785],[-8.643986,40.325099,68.67],[-8.642465,40.325503,68.712],[-8.64175,40.324726,76.419],[-8.63565,40.322635,80.116],[-8.635574,40.32231,80.51],[-8.635188,40.321942,82.99],[-8.634868,40.320889,83.587],[-8.634487,40.320355,84.879],[-8.634605,40.319671,87.005],[-8.635215,40.318621,118.525],[-8.636302,40.318017,78.508],[-8.635811,40.317493,78.283],[-8.634889,40.317188,80.768],[-8.634475,40.317272,81.65],[-8.634441,40.317644,85.017],[-8.634479,40.317294,84.864],[-8.634281,40.317256,83.188],[-8.633027,40.318667,89.148],[-8.632201,40.318964,90.055],[-8.631928,40.319367,91.617],[-8.632294,40.318902,89.887],[-8.631228,40.318532,93.715],[-8.630981,40.318847,91.508],[-8.63216,40.317396,90.347],[-8.632516,40.316301,89.292],[-8.632099,40.31622,90.034],[-8.631666,40.316897,96.011],[-8.629559,40.317894,105.678],[-8.628403,40.316692,104.892],[-8.629138,40.315367,99.412],[-8.629617,40.315121,96.229],[-8.62998,40.315143,95.197],[-8.630248,40.314805,89.223],[-8.630184,40.314625,89.725],[-8.63037,40.314459,91.808],[-8.630256,40.31416,90.925],[-8.630615,40.31381,90.87],[-8.630492,40.313632,90.492],[-8.631384,40.313198,93.019],[-8.632126,40.312249,95.396],[-8.632277,40.312162,97.36],[-8.632976,40.312472,94.98],[-8.633125,40.312322,94.467],[-8.633362,40.312335,93.672],[-8.634733,40.311126,97.713],[-8.636194,40.310123,92.614],[-8.634936,40.309224,94.808],[-8.634466,40.308815,90.353],[-8.634527,40.308706,89.568],[-8.6348,40.308569,88.91],[-8.636024,40.308547,88.527],[-8.637406,40.308322,83.394],[-8.637456,40.308011,81.598],[-8.637253,40.307811,82.058],[-8.636018,40.307422,83.295],[-8.635527,40.307051,84.441],[-8.634702,40.306746,85.981],[-8.634727,40.306325,87.909],[-8.634106,40.305969,89.308],[-8.633915,40.305918,89.42],[-8.634,40.305957,89.275],[-8.632892,40.307847,100.877],[-8.63216,40.308782,107.844],[-8.631674,40.308672,105.051],[-8.630859,40.308138,104.545],[-8.629667,40.308018,103.815],[-8.629326,40.308287,106.232],[-8.627471,40.31092,110.094],[-8.62571,40.309846,112.657],[-8.625216,40.309725,113.122],[-8.623729,40.308919,119.408],[-8.622466,40.307871,114.265],[-8.621703,40.307432,112.86],[-8.622195,40.306768,111.232],[-8.622544,40.306579,108.189],[-8.622242,40.306742,108.576],[-8.62214,40.306667,107.68],[-8.622377,40.306319,104.96],[-8.620778,40.30617,112.097],[-8.619965,40.306262,114.411],[-8.617597,40.304318,108.521],[-8.616167,40.303647,108.703],[-8.615583,40.30316,107.008],[-8.615207,40.303026,107.117],[-8.614769,40.303375,110.612],[-8.614546,40.303387,110.214],[-8.612351,40.302298,109.041],[-8.611126,40.301861,106.898],[-8.610263,40.301241,105.422],[-8.609427,40.301457,105.492],[-8.60856,40.302114,106.479],[-8.609482,40.301409,107.637],[-8.610252,40.301242,108.049],[-8.611689,40.302112,108.113],[-8.612253,40.302224,109.108],[-8.613089,40.301196,159.659],[-8.612355,40.300231,101.014],[-8.612303,40.29974,102.376],[-8.612538,40.299381,101.683],[-8.611881,40.298861,98.99],[-8.612313,40.297966,134.984],[-8.610848,40.297108,96.474],[-8.610383,40.296535,96.671],[-8.610185,40.296732,98.564],[-8.610841,40.296196,103.406],[-8.610652,40.295711,100.516],[-8.610723,40.295446,99.708],[-8.610922,40.295477,99.972],[-8.611082,40.2958,100.927],[-8.611529,40.295749,97.699],[-8.611639,40.296021,96.966],[-8.611674,40.295832,104.063],[-8.612084,40.295677,154.197],[-8.612016,40.294779,98.827],[-8.6125,40.294292,97.724],[-8.612824,40.293096,97.233],[-8.611018,40.293625,91.423],[-8.611654,40.293366,90.815],[-8.610889,40.292812,87.608],[-8.610562,40.292292,85.599],[-8.610238,40.292142,84.594],[-8.61051,40.292253,86.376],[-8.610915,40.292826,87.323],[-8.61117,40.292708,87.39],[-8.610704,40.292045,82.164],[-8.610648,40.291522,91.874],[-8.611192,40.291385,92.011],[-8.611876,40.291423,90.199],[-8.612444,40.290237,105.507],[-8.61317,40.289661,90.627],[-8.615848,40.291332,97.108],[-8.616606,40.291605,97.745],[-8.618143,40.291858,100.28],[-8.619113,40.292351,99.192],[-8.619668,40.292841,101.119],[-8.618806,40.293371,102.726],[-8.619369,40.293092,101.29],[-8.619493,40.293261,101.72],[-8.618861,40.293702,103.567],[-8.619499,40.292998,100.938],[-8.619827,40.292943,99.07],[-8.623943,40.294924,106.317],[-8.625378,40.295291,105.908],[-8.62646,40.295834,105.989],[-8.628401,40.296394,101.554],[-8.631373,40.297981,96.326],[-8.633471,40.29886,94.933],[-8.635607,40.300331,94.09],[-8.636634,40.301286,96.914],[-8.637746,40.301659,95.254],[-8.639517,40.30171,89.541],[-8.641262,40.303915,88.191],[-8.642094,40.304745,83.681],[-8.643189,40.305424,79.919],[-8.644523,40.305702,78.008],[-8.645709,40.306219,78.535],[-8.647656,40.305686,72.25],[-8.648923,40.305681,72.912],[-8.650406,40.305471,75.949],[-8.652599,40.304628,72.846],[-8.653025,40.304648,73.22],[-8.654229,40.305189,73.66],[-8.655673,40.305351,68.857],[-8.659439,40.304928,64.643],[-8.660408,40.304661,63.064],[-8.661999,40.304901,63.01],[-8.664509,40.304375,63.208],[-8.665153,40.304408,61.91],[-8.667121,40.306024,59.995],[-8.667188,40.306531,60.267],[-8.666965,40.307242,59.524],[-8.666305,40.307767,60.761],[-8.666311,40.307992,61.625],[-8.669586,40.311199,58.265],[-8.670574,40.313113,59.322],[-8.671271,40.313581,60.214],[-8.673481,40.311462,53.154],[-8.675003,40.310927,54.309],[-8.678914,40.310308,56.808],[-8.679741,40.30999,61.077],[-8.680888,40.309162,63.832],[-8.682214,40.308647,62.894],[-8.683117,40.30864,61.671],[-8.685088,40.309501,63.378],[-8.685389,40.309238,64.072],[-8.685707,40.308519,64.152],[-8.686133,40.308005,64.569],[-8.686921,40.30814,65.038],[-8.689007,40.30795,66.17],[-8.689499,40.30862,65.317],[-8.689749,40.308606,64.708]]]},"properties":{"name":"Quintã - Lombo Folar","cmt":"Quintã - Lombo Folar","desc":"Quintã - Lombo Folar"}}
]}
